%YAML 1.1
%TAG !u! tag:unity3d.com,2011:
--- !u!114 &11400000
MonoBehaviour:
  m_ObjectHideFlags: 0
  m_CorrespondingSourceObject: {fileID: 0}
  m_PrefabInstance: {fileID: 0}
  m_PrefabAsset: {fileID: 0}
  m_GameObject: {fileID: 0}
  m_Enabled: 1
  m_EditorHideFlags: 0
  m_Script: {fileID: 11500000, guid: a385e02e3ea9ef84b8f6b8f4b203cfe0, type: 3}
  m_Name: Preguntas
  m_EditorClassIdentifier: 
  categoria: 19
  cantidad: 1
  dificultad: 1
  trivial:
    response_code: 0
    results:
    - category: 'Science: Mathematics'
      type: multiple
      difficulty: medium
      question: What Greek letter is used to signify summation?
      correct_answer: Sigma
      incorrect_answers:
      - Delta
      - Alpha
      - Omega
